{
  "numofer": "zxcadqwery",
  "idtofer": "01",
  "desofer": "Aumento de línea de crédito.",
  "idorige": "01",
  "descori": "Inteligencia comercial",
  "idedita": "S",
  "limmini": 20.90,
  "limmaxi": 25.50,
  "limofer": 90.20,
  "divisa": "PEN"
}
