[
  {
    "idendep":"0001000001",
    "descdep":"EFECTIVO PLUS",
    "monedep":"PEN",
    "deudmes":1700.00,
    "capcuom":1500.00,
    "intcuom":200.00,
    "fecvenc":"2018-11-05",
    "montotf":5100.00,
    "capabon":4500.00,
    "intabon":600.00,
    "totcanc":10200.00,
    "tcuopen":9000.00,
    "interes":1200.00,
    "totdeud":17000.00,
    "mtosoli":15000.00,
    "fecinic":"2018-04-30",
    "horinic":"13:18:05",
    "feccont":"2018-04-30",
    "horcont":"13:18:05",
    "fechfin":"2018-04-30",
    "numcuot":10,
    "cuopaga":3,
    "cuopdte":6,
    "cuovnpa":1,
    "freccuo":"M",
    "ideofea":"OFER001"
  },
  {
    "idendep":"0002000002",
    "descdep":"EFECTIVO PLUS",
    "monedep":"PEN",
    "deudmes":1700.00,
    "capcuom":1500.00,
    "intcuom":200.00,
    "fecvenc":"2018-11-05",
    "montotf":5100.00,
    "capabon":4500.00,
    "intabon":600.00,
    "totcanc":10200.00,
    "tcuopen":9000.00,
    "interes":1200.00,
    "totdeud":17000.00,
    "mtosoli":15000.00,
    "fecinic":"2018-04-30",
    "horinic":"13:18:05",
    "feccont":"2018-04-30",
    "horcont":"13:18:05",
    "fechfin":"2018-04-30",
    "numcuot":10,
    "cuopaga":3,
    "cuopdte":6,
    "cuovnpa":1,
    "freccuo":"M",
    "ideofea":"OFER002"
  }
]