[
  {
    "idconme": "01",
    "dsconme": "80SzGkRLXs1HXrACBrP0JkV0g5Qd3c",
    "idperme": "01",
    "dsperme": "H93VvLjgVeZ44kFTD8g9Rd3jgU4cdQ",
    "fecmem": "2009-07-07",
    "tipcome": "01",
    "dscomme": "H2wTBB2BufoeqLi1KUpKvctjJzMv39",
    "importe": 33323632352.62,
    "monimp": "PEN",
    "idperio": "M",
    "dsperio": "MONTHLY",
    "feceval": "2019-03-01",
    "fecinme": "2019-03-30",
    "canmesm": 12,
    "impacum": 19385042983.68,
    "impmeta": 10239842359.32,
    "idlsgol": "01",
    "dslsgol": "aaaaa",
    "idcubal": "01",
    "dscubal": "bbbb"
  },
  {
    "idconme": "01",
    "dsconme": "80SzGkRLXs1HXrACBrP0JkV0g5Qd3c",
    "idperme": "01",
    "dsperme": "H93VvLjgVeZ44kFTD8g9Rd3jgU4cdQ",
    "fecmem": "2009-07-07",
    "tipcome": "01",
    "dscomme": "H2wTBB2BufoeqLi1KUpKvctjJzMv39",
    "importe": 33323632352.62,
    "monimp": "PEN",
    "idperio": "M",
    "dsperio": "MONTHLY",
    "feceval": "2018-01-01",
    "fecinme": "2018-01-30",
    "impacum": 19843323424.87,
    "impmeta": 19332201161.22,
    "idlsgol": "02",
    "dslsgol": "cccc",
    "idcubal": "02",
    "dscubal": "dddd"
  },
  {
    "importe": 0,
    "impacum": 0,
    "impmeta": 0
  }
]